add: 0
eloop: 80
exit: 280
exp: 56
main: 112
mloop: 28
mult: 8
newlineString: 455
pleaseTypeFirst: 344
pleaseTypeSecond: 375
powerIs: 444
printInt: 292
printNewline: 316
printString: 304
productIs: 419
readNum: 332
sumIs: 407
toThe: 435
