CHECK0: 0
CHECK1: 8
EXIT: 148
EXIT_0: 100
EXIT_1: 112
EXIT_2: 128
GREAT: 84
LESS: 68
LOAD0: 20
LOAD1: 28
PARSE: 36
accumSumList: 1016
accumSumLoop: 1024
cSenseString: 1352
churnSeed: 460
compare: 180
currentHeapPointer: 1504
dashesLineString: 101510
doneAccumSumList: 1044
donePrintIntList: 1152
exit: 1088
greater: 196
hashArray: 101560
heapEnd: 101508
heapStart: 1508
inLoop1: 976
inPrintIntListLoop2: 1148
less: 188
list1: 1371
list2: 1413
listM: 1455
loop1: 948
main: 204
makeRandomList: 896
malloc: 1212
merge: 0
newListNode: 1048
newlineString: 101508
noNeg: 292
pleaseLength1: 1305
pleaseLength2: 1328
pleaseSeed: 1268
printInt: 1100
printIntList: 1112
printIntListLoop: 1132
printNewline: 1192
printString: 1180
ran: 832
ranDone: 884
ranInit: 428
randomSeed: 101552
readInt: 1168
