CHECK0: 172
CHECK1: 180
DONE: 128
DONE_LEN: 164
EXIT: 320
EXIT_0: 272
EXIT_1: 284
EXIT_2: 300
GREAT: 256
HOME: 84
LESS: 240
LOAD0: 192
LOAD1: 200
MEAD: 48
NODED: 24
PARSE: 208
START: 108
START_LEN: 148
accumSumList: 1184
accumSumLoop: 1192
churnSeed: 548
compare: 352
currentHeapPointer: 1828
dashesLineString: 101834
doneAccumSumList: 1212
donePrintIntList: 1320
donePrintStringList: 1376
doneReadString: 1452
doneRsCopyLoop: 1504
exit: 1256
greater: 368
hashArray: 101884
heapEnd: 101832
heapStart: 1832
inLoop1: 1144
inPrintIntListLoop2: 1316
inPrintStringListLoop2: 1372
inReadStringLoop: 1424
inStringLengthLoop: 1000
isLess: 1060
less: 360
listLength: 140
listS1: 1702
listS2: 1763
listSplit: 96
listString: 1647
loop1: 1116
main: 376
makeRandomList: 1064
malloc: 1540
merge: 172
mergeSort: 0
newListNode: 1216
newlineString: 101832
notSame: 1044
pleaseLength: 1633
pleaseSeed: 1596
printInt: 1268
printIntList: 1280
printIntListLoop: 1300
printNewline: 1520
printString: 1508
printStringList: 1336
printStringListLoop: 1356
ran: 920
ranDone: 972
ranInit: 516
randomSeed: 101876
readInt: 1392
readString: 1404
readStringBuffer: 1824
readStringLoop: 1416
rsCopyLoop: 1484
stringCompare: 1012
stringCompareLoop: 1012
stringLength: 984
stringLengthLoop: 992
toMerge: 56
